id,name,model_id:id,group_id:id,perm_read,perm_write,perm_create,perm_unlink

access_loan_tax_report,access_loan_tax_report,model_loan_tax_report,base.group_user,1,1,1,1
access_loan_tax_wiz,access_loan_tax_wiz,model_loan_tax_wiz,base.group_user,1,1,1,1
