id,name,model_id:id,group_id:id,perm_read,perm_write,perm_create,perm_unlink
access_tree_columns_setup,access_tree_columns_setup,model_tree_columns_setup,,1,1,1,1
access_tree_columns_setup_line,access_tree_columns_setup_line,model_tree_columns_setup_line,,1,1,1,1
