id,name,model_id:id,group_id:id,perm_read,perm_write,perm_create,perm_unlink

access_forecast_line user,access_forecast_line,model_forecast_line,base.group_user,1,0,0,0
access_forecast_line manager,access_forecast_line,model_forecast_line,sales_team.group_sale_salesman,1,1,1,1
access_forecast_summary_report_user,crm.activity.report.user,model_forecast_summary_report,base.group_user,1,0,0,0
