id,name,model_id:id,group_id:id,perm_read,perm_write,perm_create,perm_unlink

access_project_type,access_project_type,model_project_type,,1,1,0,0
access_res_company_type,access_res_company_type,model_res_company_type,,1,0,0,0
