id,name,model_id:id,group_id:id,perm_read,perm_write,perm_create,perm_unlink
access_account_tax_user_gst,access_account_tax,account.model_account_tax,base.group_user,1,0,0,0
access_account_tax_manager_gst,access_account_tax,account.model_account_tax,account.group_account_invoice,1,1,1,1
access_res_partner_user_gst,access_res_partner,base.model_res_partner,base.group_user,1,0,0,0
access_res_partner_manager_gst,access_res_partner,base.model_res_partner,account.group_account_invoice,1,1,1,1
access_product_template_user_gst,access_product_template,product.model_product_template,base.group_user,1,0,0,0
access_product_template_manager_gst,access_product_template,product.model_product_template,account.group_account_invoice,1,1,1,1
access_res_country_state_user_gst,access_res_country_state,base.model_res_country_state,base.group_user,1,0,0,0
access_res_country_state_manager_gst,access_res_country_state,base.model_res_country_state,account.group_account_invoice,1,1,1,1
access_purchase_order_user_gst,access_purchase_order,purchase.model_purchase_order,base.group_user,1,0,0,0
access_purchase_order_manager_gst,access_purchase_order,purchase.model_purchase_order,account.group_account_invoice,1,1,1,1
access_sale_order_user_gst,access_sale_order,sale.model_sale_order,base.group_user,1,1,1,0
access_sale_order_manager_gst,access_sale_order,sale.model_sale_order,account.group_account_invoice,1,1,1,1
access_port_code_user_gst,access_port_code,model_port_code,base.group_user,1,0,0,0
access_port_code_manager_gst,access_port_code,model_port_code,account.group_account_invoice,1,1,1,1
access_check_date_user_gst,access_check_date,model_check_date,base.group_user,1,0,0,0
access_check_date_manager_gst,access_check_date,model_check_date,account.group_account_invoice,1,1,1,1
access_model_hsn_master_user_gst,access_model_hsn_master,model_hsn_master,base.group_user,1,1,1,0
access_model_hsn_master_manager_gst,access_model_hsn_master,model_hsn_master,account.group_account_invoice,1,1,1,1
