id,name,model_id:id,group_id:id,perm_read,perm_write,perm_create,perm_unlink
,,,,,,,
access_in_out_wiz,access_in_out_wiz,model_in_out_wiz,,1,0,0,0
access_in_out_report,access_in_out_report,model_in_out_report,,1,0,0,1
